{
 "$schema": "http://json-schema.org/draft-03/schema",
 "type": "object",
 "properties": {
   "car_uuid": {
     "type": "string",
     "required": true,
     "description": "车辆UUID"
   },
   "driver_id": {
     "type": "integer",
     "required": true,
     "description": "司机对应的员工ID"
   },
   "organ_id": {
     "type": "integer",
     "required": true,
     "description": "用车单位对应的组织机构ID"
   },
   "security_person_id": {
     "type": "integer",
     "required": false,
     "description": "安全员对应的员工ID"
   },
   "persons_amount": {
     "type": "integer",
     "minimum": 1,
     "required": true,
     "description": "用车人数"
   },
   "origin_location": {
     "type": "string",
     "required": true,
     "description": "起点"
   },
   "middle_location": {
     "type": "string",
     "required": false,
     "description": "途经"
   },
   "destination_location": {
     "type": "string",
     "required": true,
     "description": "终点"
   },
   "reason": {
     "type": "string",
     "required": false,
     "description": "用车原因"
   },
   "start_time": {
     "type": "string",
     "required": true,
     "description": "开始时间"
   },
   "end_time": {
     "type": "string",
     "required": true,
     "description": "结束时间"
   },
   "agreed_start_time": {
     "type": "string",
     "required": false,
     "description": "约定开始时间"
   }
  }
}
