{
  "$schema": "http://json-schema.org/draft-03/schema",
  "type": "array",
  "items":{
    "type": "object",
    "properties": {
      "car": {
        "type": "object",
        "required": true,
        "description": "车辆信息",
        "properties": {
          "identifier": {
            "type": "string",
            "required": true,
            "description": "车辆UUID"
          },
          "plate_no": {
            "type": "string",
            "required": true,
            "description": "车辆牌照号"
          },
          "model_no": {
            "type": "string",
            "required": true,
            "description": "车辆型号"
          }
        }
      },
      "driver": {
        "type": "object",
        "required": false,
        "description": "默认司机信息，如果车辆的状态为使用中，则表示使用该车辆的司机信息",
        "properties": {
          "identifier": {
            "type": "string",
            "required": false,
            "description": "员工编号"
          },
          "name": {
            "type": "string",
            "required": false,
            "description": "员工姓名"
          },
          "phone_no": {
            "type": "string",
            "required": false,
            "description": "员工联系电话"
          }
        }
      },
      "organ": {
        "type": "object",
        "required": true,
        "description": "用车单位",
        "properties": {
          "id": {
            "type": "integer",
            "required": true,
            "description": "组织机构ID"
          },
          "name": {
            "type": "string",
            "required": true,
            "description": "机构名称"
          }
        }
      },
      "security_person": {
        "type": "object",
        "properties": {
          "id": {
            "type": "integer",
            "required": true,
            "description": "员工ID"
          },
          "number": {
            "type": "string",
            "required": true,
            "description": "员工编号"
          },
          "name": {
            "type": "string",
            "required": true,
            "description": "员工姓名"
          },
          "phone_no": {
            "type": "string",
            "required": true,
            "description": "联系电话"
          },
          "organ_id": {
            "type": "integer",
            "required": true,
            "description": "机构ID"
          },
          "organ_name": {
            "type": "string",
            "required": true,
            "description": "机构名称"
          }
        }
      },
      "persons_amount": {
        "type": "integer",
        "minimum": 1,
        "required": true,
        "description": "用车人数"
      },
      "origin_location": {
        "type": "string",
        "required": true,
        "description": "起点"
      },
      "middle_location": {
        "type": "string",
        "required": false,
        "description": "途经"
      },
      "destination_location": {
        "type": "string",
        "required": true,
        "description": "终点"
      },
      "reason": {
        "type": "string",
        "required": false,
        "description": "用车原因"
      },
      "start_time": {
        "type": "string",
        "required": true,
        "description": "开始时间"
      },
      "end_time": {
        "type": "string",
        "required": true,
        "description": "结束时间"
      },
      "agreed_start_time": {
        "type": "string",
        "required": false,
        "description": "约定开始时间"
      },
      "complete_time": {
        "type": "string",
        "required": false,
        "description": "实际返程日期(仅状态为'已完成'时具备）"
      },
      "status": {
        "type": "string",
        "required": false,
        "description": "订单状态"
      },
      "oprecs": {
        "type": "array",
        "items":{
          "type": "object",
          "properties": {
            "id": {
              "type": "integer",
              "required": true,
              "description": "操作记录ID"
            },
            "token": {
              "type": "string",
              "required": true,
              "description": "实体令牌"
            },
            "pk": {
              "type": "string",
              "required": true,
              "description": "实体关键值"
            },
            "action": {
              "type": "string",
              "required": true,
              "description": "实体操作"
            },
            "remark": {
              "type": "string",
              "required": false,
              "description": "备注"
            },
            "actor": {
              "type": "object",
              "properties": {
                "id": {
                  "type": "integer",
                  "required": true,
                  "description": "员工ID"
                },
                "number": {
                  "type": "string",
                  "required": true,
                  "description": "员工编号"
                },
                "name": {
                  "type": "string",
                  "required": true,
                  "description": "员工姓名"
                },
                "phone_no": {
                  "type": "string",
                  "required": true,
                  "description": "联系电话"
                },
                "organ_id": {
                  "type": "integer",
                  "required": true,
                  "description": "机构ID"
                },
                "organ_name": {
                  "type": "string",
                  "required": true,
                  "description": "机构名称"
                }
              }
            }
          }
        }
      }
    }
  }
}
